{
  "development": {
    "username": "rosario",
    "password": "Hasar1102",
    "database": "TodoBikesOP",
    "host": "192.168.100.60",
    "dialect": "mssql",
    "dialectOptions": {
      "instanceName": "MSSQLSERVER2014"
  }
  },
  "test": {
    "username": "rosario",
    "password": "Hasar1102",
    "database": "TodoBikesOP",
    "host": "192.168.100.60/MSSQLSERVER2014",
    "dialect": "mssql"
  },
  "production": {
    "username": "rosario",
    "password": "Hasar1102",
    "database": "TodoBikesOP",
    "host": "192.168.100.60/MSSQLSERVER2014",
    "dialect": "mssql"
  }
}
